{
    "count": 504,
    "next": "https://wger.de/api/v2/exerciseinfo/?format=api&page=2",
    "previous": null,
    "results": [
        {
            "name": "",
            "category": {
                "id": 10,
                "name": "Abs"
            },
            "description": "The plank is one of the most common core exercises, ever, but most guys get it wrong. Creating tension in your abs primes your body to maximally contract all of its muscles. \"This is a very useful ability when sprinting, jumping, and lifting weights,\" Dunham says",
            "muscles": [],
            "muscles_secondary": [],
            "equipment": []
        },
        {
            "name": "",
            "category": {
                "id": 10,
                "name": "Abs"
            },
            "description": "Get onto all fours and prop yourself up on your forearms. \"Turn your palms up toward the sky, keeping your thumbs on the ground, and form a straight line from your head to your heels,\" Dunham says. Squeeze your glutes and quads, which will draw your knees up and prevent sagging. \"Brace your core as if you were expecting a kick to the stomach, and press your forearms into the ground,\" he adds. Once you feel everything tighten, squeeze even harder and take big, deliberate breaths as you plank. To increase the challenge, squeeze harder and exhale more air with each breath as you hold the position.",
            "muscles": [],
            "muscles_secondary": [],
            "equipment": []
        },
        {
            "name": "",
            "category": {
                "id": 14,
                "name": "Calves"
            },
            "description": "Dolor dolor quia molestiae accusantium libero et dolores voluptatem. Quis molestiae non quam tempora ab veritatis totam. Reprehenderit enim dolore aut ipsa repudiandae possimus aspernatur. Eligendi tempore beatae labore id aut. Dolorem iusto est odio.",
            "muscles": [],
            "muscles_secondary": [],
            "equipment": []
        },
        {
            "name": "",
            "category": {
                "id": 10,
                "name": "Abs"
            },
            "description": "5 minutes Set a time limit for however long you have to exercise. Complete as many reps as you can of your exercise of choice in that time, then work to do more reps the next time you repeat the routine.",
            "muscles": [],
            "muscles_secondary": [],
            "equipment": []
        },
        {
            "name": "",
            "category": {
                "id": 9,
                "name": "Legs"
            },
            "description": "This exercise entails anything involving soccer, including any exercises that are soccer-related.",
            "muscles": [],
            "muscles_secondary": [],
            "equipment": []
        },
        {
            "name": "",
            "category": {
                "id": 10,
                "name": "Abs"
            },
            "description": "One does not accumulate but eliminate .  It is not daily increase but daily  decrease. The height of cultivation  always runs to simplicity.",
            "muscles": [],
            "muscles_secondary": [],
            "equipment": []
        },
        {
            "name": "10 Min Abs",
            "category": {
                "id": 10,
                "name": "Abs"
            },
            "description": "<p>1 Minute for each exercise</p>\n<ol>\n<li>Hold feet 6 inches off ground</li>\n<li>Crunches</li>\n<li>Side Crunches (L)</li>\n<li>Side Crunches (R)</li>\n<li>Heel Touches</li>\n<li>Plank Crunch</li>\n<li>Scissor Kicks</li>\n<li>Swim Kicks</li>\n<li>V Crunches</li>\n<li>Hold feet 6 in off ground</li>\n</ol>\n<p>Exercises can be substituted to vary workout</p>",
            "muscles": [],
            "muscles_secondary": [],
            "equipment": []
        },
        {
            "name": "2 Handed Kettlebell Swing",
            "category": {
                "id": 10,
                "name": "Abs"
            },
            "description": "<p>Two Handed Russian Style Kettlebell swing</p>",
            "muscles": [],
            "muscles_secondary": [],
            "equipment": [
                {
                    "id": 10,
                    "name": "Kettlebell"
                }
            ]
        },
        {
            "name": "52",
            "category": {
                "id": 13,
                "name": "Shoulders"
            },
            "description": "With a deck of cards, pick a card and do push ups relating to the number value on the card. For example if a Jack of Hearts is picked, do 10 pushups.",
            "muscles": [],
            "muscles_secondary": [],
            "equipment": []
        },
        {
            "name": "Aalex Gambe Alte al Muro",
            "category": {
                "id": 9,
                "name": "Legs"
            },
            "description": "<p></p>\n<p>60 secondi per ogni stazione, ripetere tutto 2 volte</p>\n<p>1. gambe alte ferme, cercando di portare i glutei più vicino possibile al muro</p>\n<p>2. portare la gamba destra \"ad ore 3\", quanto più largo possibile; la gamba sinistra è ferma in alto</p>\n<p>3. portare la gamba sinistra \"ad ore 9\", quanto più largo possibile; la gamba destra è ferma in alto</p>\n<p>4. partendo da posizione base, allargare entrabe le gambe il più possibile (per raggiungere le \"10 e 10\")</p>\n<p>5. gambe piegate a rana e piedi appoggiati al muro (il lato destro del piede destro, per capirci, tocca il muro, viceversa per il sinistro): spingere con le mani in zona ginocchia verso il muro per avvicinarle</p>",
            "muscles": [],
            "muscles_secondary": [],
            "equipment": []
        },
        {
            "name": "Abduktoren-Maschine",
            "category": {
                "id": 9,
                "name": "Legs"
            },
            "description": "<ul>\n<li>in eine aufrechte Position setzen, bei der die Beine hüftbreit geöffnet sind</li>\n<li>den Rücken, die Knie und die Oberschenkelaußenseite an die jeweiligen Polster pressen</li>\n<li>mit den Händen an den Griffen festhalten</li>\n<li>die Oberschenkel bis zum Anschlagpunkt der Hebelarme auseinander drücken</li>\n<li>danach die Beine wieder zusammen führen</li>\n<li>das Gesäß nicht vom Sitz abheben</li>\n<li>beim Auseinanderdrücken der Hebelarme aus- und beim Zusammenführen einatmen</li>\n</ul>",
            "muscles": [
                {
                    "id": 8,
                    "name": "Gluteus maximus",
                    "is_front": false
                },
                {
                    "id": 6,
                    "name": "Rectus abdominis",
                    "is_front": true
                }
            ],
            "muscles_secondary": [
                {
                    "id": 11,
                    "name": "Biceps femoris",
                    "is_front": false
                }
            ],
            "equipment": []
        },
        {
            "name": "Adduktoren Maschine",
            "category": {
                "id": 9,
                "name": "Legs"
            },
            "description": "<p>Oberschenkel Innenseite!</p>",
            "muscles": [],
            "muscles_secondary": [],
            "equipment": []
        },
        {
            "name": "Arch Hold",
            "category": {
                "id": 10,
                "name": "Abs"
            },
            "description": "<p>Opposite of hollow hold. Lie on stomach with arms and legs extended. See https://www.youtube.com/watch?v=44ScXWFaVBs&amp;feature=youtu.be&amp;t=7m51s</p>",
            "muscles": [],
            "muscles_secondary": [],
            "equipment": []
        },
        {
            "name": "Armhävning",
            "category": {
                "id": 11,
                "name": "Chest"
            },
            "description": "<p>Hallå du gamle indian, mår du bra?</p>",
            "muscles": [],
            "muscles_secondary": [],
            "equipment": []
        },
        {
            "name": "Armhävning",
            "category": {
                "id": 11,
                "name": "Chest"
            },
            "description": "<p>Armhävning, inte så jäkla komplicerat</p>",
            "muscles": [],
            "muscles_secondary": [],
            "equipment": []
        },
        {
            "name": "Arms",
            "category": {
                "id": 8,
                "name": "Arms"
            },
            "description": "<p>Arms exercise sdfg asdg asf sdfg sdfg sdfgsdf gsdf g sgsdf gsdfg sdfg alk fl;asdf ;ansd;kf na;klsdnfla nsd l;knalksdf adsfadsf a</p>",
            "muscles": [
                {
                    "id": 1,
                    "name": "Biceps brachii",
                    "is_front": true
                },
                {
                    "id": 11,
                    "name": "Biceps femoris",
                    "is_front": false
                },
                {
                    "id": 8,
                    "name": "Gluteus maximus",
                    "is_front": false
                },
                {
                    "id": 14,
                    "name": "Obliquus externus abdominis",
                    "is_front": true
                },
                {
                    "id": 4,
                    "name": "Pectoralis major",
                    "is_front": true
                }
            ],
            "muscles_secondary": [
                {
                    "id": 11,
                    "name": "Biceps femoris",
                    "is_front": false
                },
                {
                    "id": 12,
                    "name": "Latissimus dorsi",
                    "is_front": false
                },
                {
                    "id": 10,
                    "name": "Quadriceps femoris",
                    "is_front": true
                }
            ],
            "equipment": [
                {
                    "id": 1,
                    "name": "Barbell"
                },
                {
                    "id": 8,
                    "name": "Bench"
                },
                {
                    "id": 4,
                    "name": "Gym mat"
                }
            ]
        },
        {
            "name": "Arnold Press",
            "category": {
                "id": 13,
                "name": "Shoulders"
            },
            "description": "<p>Zwei Kurzhanteln mit den Handflächen nach innen vor der Brust halten, Ellbogen unterhalb der Handgelenke.</p>\n<p>Ellbogen nach außen bringen und Hanteln über den Kopf heben. Drehung kommt aus dem Ellbogen, nicht aus den Armen!</p>\n<p>Wenn die Arme durchgestreckt sind, die gleiche Bewegung rückwärts ausführen.</p>",
            "muscles": [
                {
                    "id": 2,
                    "name": "Anterior deltoid",
                    "is_front": true
                }
            ],
            "muscles_secondary": [
                {
                    "id": 3,
                    "name": "Serratus anterior",
                    "is_front": true
                },
                {
                    "id": 9,
                    "name": "Trapezius",
                    "is_front": false
                },
                {
                    "id": 5,
                    "name": "Triceps brachii",
                    "is_front": false
                }
            ],
            "equipment": [
                {
                    "id": 3,
                    "name": "Dumbbell"
                }
            ]
        },
        {
            "name": "Arnold Shoulder Press",
            "category": {
                "id": 13,
                "name": "Shoulders"
            },
            "description": "<p>Very common shoulder exercise.</p>\n<p> </p>\n<p>As shown here: https://www.youtube.com/watch?v=vj2w851ZHRM</p>",
            "muscles": [],
            "muscles_secondary": [],
            "equipment": [
                {
                    "id": 3,
                    "name": "Dumbbell"
                }
            ]
        },
        {
            "name": "Asai Squad",
            "category": {
                "id": 9,
                "name": "Legs"
            },
            "description": "<ol>\n<li>single leg sit and stand</li>\n</ol>",
            "muscles": [
                {
                    "id": 10,
                    "name": "Quadriceps femoris",
                    "is_front": true
                }
            ],
            "muscles_secondary": [
                {
                    "id": 8,
                    "name": "Gluteus maximus",
                    "is_front": false
                }
            ],
            "equipment": []
        },
        {
            "name": "Asai Squad",
            "category": {
                "id": 9,
                "name": "Legs"
            },
            "description": "<ol>\n<li>single leg sit and stand</li>\n</ol>",
            "muscles": [
                {
                    "id": 10,
                    "name": "Quadriceps femoris",
                    "is_front": true
                }
            ],
            "muscles_secondary": [
                {
                    "id": 8,
                    "name": "Gluteus maximus",
                    "is_front": false
                }
            ],
            "equipment": []
        }
    ]
}